{
   "response":{
      "status":"ok",
      "userTier":"developer",
      "total":2420376,
      "startIndex":1,
      "pageSize":10,
      "currentPage":1,
      "pages":242038,
      "orderBy":"newest",
      "results":[
         {
            "id":"business/live/2023/apr/25/price-rises-nestle-profits-uk-grocery-inflation-cbi-business-live",
            "type":"liveblog",
            "sectionId":"business",
            "sectionName":"Business",
            "webPublicationDate":"2023-04-25T14:37:59Z",
            "webTitle":"Brits “need to accept” they’re worse off and stop pushing wages and prices higher, says BoE chief economist – business live",
            "webUrl":"https://www.theguardian.com/business/live/2023/apr/25/price-rises-nestle-profits-uk-grocery-inflation-cbi-business-live",
            "apiUrl":"https://content.guardianapis.com/business/live/2023/apr/25/price-rises-nestle-profits-uk-grocery-inflation-cbi-business-live",
            "isHosted":false,
            "pillarId":"pillar/news",
            "pillarName":"News"
         },
         {
            "id":"world/live/2023/apr/25/russia-ukraine-war-live-risk-of-conflict-between-major-powers-at-historic-high-says-un-chief",
            "type":"liveblog",
            "sectionId":"world",
            "sectionName":"World news",
            "webPublicationDate":"2023-04-25T14:32:55Z",
            "webTitle":"Russia-Ukraine war live: Ukrainian forces ‘conducting raids’ across Dnieper River",
            "webUrl":"https://www.theguardian.com/world/live/2023/apr/25/russia-ukraine-war-live-risk-of-conflict-between-major-powers-at-historic-high-says-un-chief",
            "apiUrl":"https://content.guardianapis.com/world/live/2023/apr/25/russia-ukraine-war-live-risk-of-conflict-between-major-powers-at-historic-high-says-un-chief",
            "isHosted":false,
            "pillarId":"pillar/news",
            "pillarName":"News"
         },
         {
            "id":"us-news/live/2023/apr/25/joe-biden-2024-reelection-trump-us-politics-live",
            "type":"liveblog",
            "sectionId":"us-news",
            "sectionName":"US news",
            "webPublicationDate":"2023-04-25T14:32:11Z",
            "webTitle":"Biden foregrounds abortion as he announces bid for second term as US president – live",
            "webUrl":"https://www.theguardian.com/us-news/live/2023/apr/25/joe-biden-2024-reelection-trump-us-politics-live",
            "apiUrl":"https://content.guardianapis.com/us-news/live/2023/apr/25/joe-biden-2024-reelection-trump-us-politics-live",
            "isHosted":false,
            "pillarId":"pillar/news",
            "pillarName":"News"
         },
         {
            "id":"world/live/2023/apr/25/sudan-live-uk-government-coordinating-evacuation-of-british-nationals",
            "type":"liveblog",
            "sectionId":"world",
            "sectionName":"World news",
            "webPublicationDate":"2023-04-25T14:22:47Z",
            "webTitle":"Sudan live: Sudanese army accused of breaching ceasefire as ‘large-scale evacuation’ of UK nationals begins",
            "webUrl":"https://www.theguardian.com/world/live/2023/apr/25/sudan-live-uk-government-coordinating-evacuation-of-british-nationals",
            "apiUrl":"https://content.guardianapis.com/world/live/2023/apr/25/sudan-live-uk-government-coordinating-evacuation-of-british-nationals",
            "isHosted":false,
            "pillarId":"pillar/news",
            "pillarName":"News"
         },
         {
            "id":"politics/live/2023/apr/25/labour-conservatives-vote-down-sewage-bill-keir-starmer-rishi-sunak-uk-politics-live",
            "type":"liveblog",
            "sectionId":"politics",
            "sectionName":"Politics",
            "webPublicationDate":"2023-04-25T14:22:22Z",
            "webTitle":"Ex-SNP treasurer says he did not know party had bought £100,000 campervan – UK politics live",
            "webUrl":"https://www.theguardian.com/politics/live/2023/apr/25/labour-conservatives-vote-down-sewage-bill-keir-starmer-rishi-sunak-uk-politics-live",
            "apiUrl":"https://content.guardianapis.com/politics/live/2023/apr/25/labour-conservatives-vote-down-sewage-bill-keir-starmer-rishi-sunak-uk-politics-live",
            "isHosted":false,
            "pillarId":"pillar/news",
            "pillarName":"News"
         },
         {
            "id":"us-news/2023/apr/25/joe-biden-white-house-2024-reelection-campaign",
            "type":"article",
            "sectionId":"us-news",
            "sectionName":"US news",
            "webPublicationDate":"2023-04-25T14:05:00Z",
            "webTitle":"Joe Biden formally announces 2024 White House run",
            "webUrl":"https://www.theguardian.com/us-news/2023/apr/25/joe-biden-white-house-2024-reelection-campaign",
            "apiUrl":"https://content.guardianapis.com/us-news/2023/apr/25/joe-biden-white-house-2024-reelection-campaign",
            "isHosted":false,
            "pillarId":"pillar/news",
            "pillarName":"News"
         },
         {
            "id":"music/2023/apr/25/harry-belafonte-singer-dies-actor-singer-activist",
            "type":"article",
            "sectionId":"music",
            "sectionName":"Music",
            "webPublicationDate":"2023-04-25T13:49:36Z",
            "webTitle":"Harry Belafonte, singer, actor and tireless activist, dies aged 96",
            "webUrl":"https://www.theguardian.com/music/2023/apr/25/harry-belafonte-singer-dies-actor-singer-activist",
            "apiUrl":"https://content.guardianapis.com/music/2023/apr/25/harry-belafonte-singer-dies-actor-singer-activist",
            "isHosted":false,
            "pillarId":"pillar/arts",
            "pillarName":"Arts"
         },
         {
            "id":"football/2023/apr/25/spurs-to-refund-fans-who-attended-newcastle-thrashing",
            "type":"article",
            "sectionId":"football",
            "sectionName":"Football",
            "webPublicationDate":"2023-04-25T13:47:53Z",
            "webTitle":"‘It wasn’t good enough’: Spurs to refund fans who attended Newcastle thrashing",
            "webUrl":"https://www.theguardian.com/football/2023/apr/25/spurs-to-refund-fans-who-attended-newcastle-thrashing",
            "apiUrl":"https://content.guardianapis.com/football/2023/apr/25/spurs-to-refund-fans-who-attended-newcastle-thrashing",
            "isHosted":false,
            "pillarId":"pillar/sport",
            "pillarName":"Sport"
         },
         {
            "id":"society/2023/apr/25/tell-us-are-you-a-man-who-has-experienced-postnatal-depression",
            "type":"article",
            "sectionId":"society",
            "sectionName":"Society",
            "webPublicationDate":"2023-04-25T13:44:47Z",
            "webTitle":"Tell us: are you a man who has experienced postnatal depression? ",
            "webUrl":"https://www.theguardian.com/society/2023/apr/25/tell-us-are-you-a-man-who-has-experienced-postnatal-depression",
            "apiUrl":"https://content.guardianapis.com/society/2023/apr/25/tell-us-are-you-a-man-who-has-experienced-postnatal-depression",
            "isHosted":false,
            "pillarId":"pillar/news",
            "pillarName":"News"
         },
         {
            "id":"world/2023/apr/25/sudan-evacuation-british-nationals",
            "type":"article",
            "sectionId":"world",
            "sectionName":"World news",
            "webPublicationDate":"2023-04-25T13:22:28Z",
            "webTitle":"UK to start evacuating British nationals from Sudan",
            "webUrl":"https://www.theguardian.com/world/2023/apr/25/sudan-evacuation-british-nationals",
            "apiUrl":"https://content.guardianapis.com/world/2023/apr/25/sudan-evacuation-british-nationals",
            "isHosted":false,
            "pillarId":"pillar/news",
            "pillarName":"News"
         }
      ]
   }
}